%YAML 1.1
%TAG !u! tag:unity3d.com,2011:
--- !u!1045 &1
EditorBuildSettings:
  m_ObjectHideFlags: 0
  serializedVersion: 2
  m_Scenes:
  - enabled: 1
    path: Assets/Scenes/MainMenu.unity
    guid: b58e3ebf02f8ace4d816f981912b89ca
  - enabled: 1
    path: Assets/Scenes/IntroScene.unity
    guid: 547e0d38dcac6c4469f92902ddd363ac
  - enabled: 1
    path: Assets/Scenes/main.unity
    guid: 1a5bef1dca819064b8fef9c82826d6d5
  - enabled: 1
    path: Assets/Scenes/GroundFloorScene.unity
    guid: 4264348bb8f26594c9192d2594807f16
  - enabled: 1
    path: Assets/Scenes/ElevatorScene.unity
    guid: b1bd4685988572b43a94b0a9f3ec94f9
  - enabled: 1
    path: Assets/Scenes/Floor1Scene.unity
    guid: 02f5d535927011449afd48b262453dd1
  - enabled: 1
    path: Assets/Scenes/Floor2Scene.unity
    guid: fbdbec8a4b64522499ac10bfd0d4fb9b
  - enabled: 1
    path: Assets/Scenes/Floor3Scene.unity
    guid: 765746421dde8b742961a7072e2781ac
  - enabled: 1
    path: Assets/Scenes/Floor4Scene.unity
    guid: 3e3d63ec7ed59a14482b1f13ab55f4e9
  - enabled: 1
    path: Assets/Scenes/Floor5Scene.unity
    guid: 48a3ccc316d8efa41a14ae1c893fc4bc
  - enabled: 1
    path: Assets/Scenes/Floor6Scene.unity
    guid: 400e01c0e7913994d99045178b079014
  - enabled: 0
    path: 
    guid: 87e5bcf6afafab2438ddc5fcdc4c4546
  - enabled: 0
    path: 
    guid: 9ea873434a59a1a4fa03d83c6e861367
